,1.05555555555556E-09,1.05555555555556E-09,,0.003525520442054,0.006292668171227,,,GM,08,901291.909734,914188.898565,203.389073,,080219-.raw
,1.05555555555556E-09,1.05555555555556E-09,,0.003521982952952,0.006317055225372,,,GM,11,899517.590513,908795.091700,209.492265,,080219-.raw
,1.05555555555556E-09,1.05555555555556E-09,,0.007132892683148,0.010297881811857,,,GM,11,899517.588223,908795.112490,209.496769,,080219-.raw
,1.05555555555556E-09,1.05555555555556E-09,,0.006976857005308,0.009824894989530,,,GM,11,899517.600501,908795.073775,209.490808,,080219-.raw
,1.05555555555556E-09,1.05555555555556E-09,,0.006804515452435,0.009344576857984,,,GM,10295085,899350.959477,908389.185543,197.209993,,080219-.raw
,1.05555555555556E-09,1.05555555555556E-09,,0.007188649537663,0.010819726002713,,,GM,10295084,899363.940462,908381.504526,197.959305,,080219-.raw
,1.05555555555556E-09,1.05555555555556E-09,,0.006731107210120,0.010172604272763,,,GM,10295083,899376.658614,908373.547769,198.923031,,080219-.raw
,1.05555555555556E-09,1.05555555555556E-09,,0.006728799858441,0.010353924396137,,,GM,10295082,899389.523908,908366.029635,200.199139,,080219-.raw
,1.05555555555556E-09,1.05555555555556E-09,,0.006694913997004,0.010412028990686,,,GM,10295081,899402.464873,908358.069463,198.785443,,080219-.raw
,1.05555555555556E-09,1.05555555555556E-09,,0.006688683448980,0.010443830862641,,,GM,10295080,899415.229338,908350.276293,196.611325,,080219-.raw
,1.05555555555556E-09,1.05555555555556E-09,,0.006685853314896,0.010511929479738,,,GM,10295079,899428.111551,908342.644420,196.148142,,080219-.raw
,1.05555555555556E-09,1.05555555555556E-09,,0.006538094176600,0.010255120073756,,,GM,10295078,899440.988461,908334.993856,195.571961,,080219-.raw
,1.05555555555556E-09,1.05555555555556E-09,,0.006569526779155,0.010628379881382,,,GM,10295077,899453.877543,908327.231202,194.999932,,080219-.raw
,1.05555555555556E-09,1.05555555555556E-09,,0.006633496377617,0.011082024313509,,,GM,10295076,899466.699212,908319.491338,194.526017,,080219-.raw
,1.05555555555556E-09,1.05555555555556E-09,,0.006636830978096,0.011154989091059,,,GM,10295075,899479.651761,908311.602380,194.094254,,080219-.raw
,1.05555555555556E-09,1.05555555555556E-09,,0.006645794026554,0.011268672222892,,,GM,10295074,899492.516689,908304.138051,193.544394,,080219-.raw
,1.05555555555556E-09,1.05555555555556E-09,,0.006648757960647,0.011378339802225,,,GM,10295073,899505.373145,908296.290295,192.955989,,080219-.raw
,1.05555555555556E-09,1.05555555555556E-09,,0.006708758883178,0.011577480472624,,,GM,10295072,899518.107245,908288.516131,192.314202,,080219-.raw
,1.05555555555556E-09,1.05555555555556E-09,,0.006677103539308,0.011656094342470,,,GM,10295071,899530.919842,908280.983217,191.650269,,080219-.raw
,1.05555555555556E-09,1.05555555555556E-09,,0.006720581712822,0.011904627395173,,,GM,10295070,899543.937500,908273.213494,191.257056,,080219-.raw
,1.05555555555556E-09,1.05555555555556E-09,,0.006733137493332,0.011998464663823,,,GM,10295069,899556.666022,908265.515817,190.975277,,080219-.raw
,1.05555555555556E-09,1.05555555555556E-09,,0.006848076047997,0.012039546854794,,,GM,10295068,899569.664163,908257.634542,190.440501,,080219-.raw
,1.05555555555556E-09,1.05555555555556E-09,,0.006882933589319,0.012131902078787,,,GM,10295067,899582.541469,908249.965648,189.783205,,080219-.raw
,1.05555555555556E-09,1.05555555555556E-09,,0.006817948538810,0.012084764117996,,,GM,10295066,899595.234937,908242.234272,189.470510,,080219-.raw
,1.05555555555556E-09,1.05555555555556E-09,,0.006822994289299,0.012065618298948,,,GM,10295065,899608.321187,908234.607612,189.426820,,080219-.raw
,1.05555555555556E-09,1.05555555555556E-09,,0.006802428513765,0.012123549977938,,,GM,10295064,899620.989778,908226.775258,189.226068,,080219-.raw
,1.05555555555556E-09,1.05555555555556E-09,,0.006714830019822,0.011743124884864,,,GM,10295063,899633.834178,908219.113521,188.874083,,080219-.raw
,1.05555555555556E-09,1.05555555555556E-09,,0.007118599644552,0.012243987061083,,,GM,10295062,899646.686529,908211.481210,188.303303,,080219-.raw
,1.05555555555556E-09,1.05555555555556E-09,,0.009170259349048,0.015213541376094,,,GM,10295061,899659.546914,908203.709253,188.121759,,080219-.raw
,1.05555555555556E-09,1.05555555555556E-09,,0.006741626188159,0.011089961665372,,,GM,10295060,899672.549785,908195.972730,188.021436,,080219-.raw
,1.05555555555556E-09,1.05555555555556E-09,,0.007141578632096,0.011883905467888,,,GM,10295059,899685.305190,908188.262594,187.720563,,080219-.raw
,1.05555555555556E-09,1.05555555555556E-09,,0.006825803002963,0.011226939037442,,,GM,10295058,899698.177840,908180.534313,187.670917,,080219-.raw
,1.05555555555556E-09,1.05555555555556E-09,,0.021075308943788,0.032622879991929,,,GM,10295057,899711.032519,908172.770512,188.151184,,080219-.raw
,1.05555555555556E-09,1.05555555555556E-09,,0.012598225226005,0.019512300690015,,,GM,10295056,899723.929765,908164.984596,188.803125,,080219-.raw
,1.05555555555556E-09,1.05555555555556E-09,,0.012890078127384,0.019976827626427,,,GM,10295055,899736.645068,908157.361424,191.072479,,080219-.raw
,1.05555555555556E-09,1.05555555555556E-09,,0.010976167706152,0.016871466611822,,,GM,10295054,899749.539953,908149.513793,191.895088,,080219-.raw
,1.05555555555556E-09,1.05555555555556E-09,,0.010185099517306,0.015747852002581,,,GM,10295053,899762.465125,908141.963911,192.975788,,080219-.raw
,1.05555555555556E-09,1.05555555555556E-09,,0.009798298279444,0.015123725247880,,,GM,1029505310,899764.999283,908126.435090,194.735841,,080219-.raw
,1.05555555555556E-09,1.05555555555556E-09,,0.132145365125810,0.160897339016406,,,GM,10295052,899775.319785,908134.095278,193.840421,,080219-.raw
,1.05555555555556E-09,1.05555555555556E-09,,0.009506403778990,0.014611164418360,,,GM,10295051,899788.182852,908126.410249,194.305763,,080219-.raw
,1.05555555555556E-09,1.05555555555556E-09,,0.010167831244568,0.015700153385599,,,GM,10295050,899801.020864,908118.629158,194.770261,,080219-.raw
